…
让我们将它们放入数据框(tibble)中，以便更容易绘制和分析数据。该数据框中的每一行表示来自特定被试的平均反应时。


```r
dat <- tibble(group = rep(c("parent", "control"), each = 50),
              rt = c(parents, control))

dat
```

```
## # A tibble: 100 × 2
##    group     rt
##    <chr>  <dbl>
##  1 parent  475.
##  2 parent  502.
##  3 parent  494.
##  4 parent  494.
##  5 parent  516.
##  6 parent  403.
##  7 parent  490.
##  8 parent  517.
##  9 parent  481.
## 10 parent  549.
## # ℹ 90 more rows
```
…
