…
让我们加载数据[grades.csv](https://raw.githubusercontent.com/PsyTeachR/stat-models-v1/master/data/grades.csv){target="_download"}并看一看。


```r
library("corrr") # 相关矩阵
library("tidyverse")

grades <- read_csv("data/grades.csv", col_types = "ddii")

grades
```

```
## # A tibble: 100 × 4
##    grade   GPA lecture nclicks
##    <dbl> <dbl>   <int>   <int>
##  1  2.40 1.13        6      88
##  2  3.67 0.971       6      96
##  3  2.85 3.34        6     123
##  4  1.36 2.76        9      99
##  5  2.31 1.02        4      66
##  6  2.58 0.841       8      99
##  7  2.69 4           5      86
##  8  3.05 2.29        7     118
##  9  3.21 3.39        9      98
## 10  2.24 3.27       10     115
## # ℹ 90 more rows
```
…
