…
</div>


### 生产试次样本

每个试次都是独特被试和刺激的*相遇*，在这个实验中，每个被试都接受了每个刺激。生产一个表`trials`列出实验中所有的试次。注意：每个被试都会接受每种刺激1次。使用`crossing()`函数创建所有可能的试次。

现在应用这个示例生成下面的表，其中`err`是残差项，提取于\(N \sim \left(0, \sigma^2\right)\)，\(\sigma\)是`err_sd`。




```
## # A tibble: 5,000 × 3
##    subj_id item_id    err
##      <int>   <int>  <dbl>
##  1       1       1  382. 
##  2       1       2  283. 
##  3       1       3   30.4
##  4       1       4 -282. 
##  5       1       5 -239. 
##  6       1       6   73.4
##  7       1       7  -98.4
##  8       1       8 -189. 
##  9       1       9 -410. 
## 10       1      10  102. 
## # ℹ 4,990 more rows
```
…
</div>


### 合并`subjects`，`items`和`trials`

合并`subjects`，`items`和`trials`中的信息，创建完整的数据集`dat_sim`，看起来像这样：




```
## # A tibble: 5,000 × 7
##    subj_id item_id  S_0s  I_0i   S_1s  cond    err
##      <int>   <int> <dbl> <dbl>  <dbl> <dbl>  <dbl>
##  1       1       1 -80.0  14.9 -0.763  -0.5  382. 
##  2       1       2 -80.0 -86.3 -0.763   0.5  283. 
##  3       1       3 -80.0 -12.8 -0.763  -0.5   30.4
##  4       1       4 -80.0 -13.9 -0.763   0.5 -282. 
##  5       1       5 -80.0  55.6 -0.763  -0.5 -239. 
##  6       1       6 -80.0 -45.9 -0.763   0.5   73.4
##  7       1       7 -80.0 -42.0 -0.763  -0.5  -98.4
##  8       1       8 -80.0 -87.6 -0.763   0.5 -189. 
##  9       1       9 -80.0 -97.4 -0.763  -0.5 -410. 
## 10       1      10 -80.0 -85.2 -0.763   0.5  102. 
## # ℹ 4,990 more rows
```
…
### 创建响应变量

根据下面的公式模型将响应变量`Y`添加到数据中：

$$Y_{si} = \beta_0 + S_{0s} + I_{0i} + (\beta_1 + S_{1s})X_{i} + e_{si}$$

那么，最终的表(`dat_sim2`)看起来是这样的：




```
## # A tibble: 5,000 × 8
##    subj_id item_id     Y  S_0s  I_0i   S_1s  cond    err
##      <int>   <int> <dbl> <dbl> <dbl>  <dbl> <dbl>  <dbl>
##  1       1       1 1078. -80.0  14.9 -0.763  -0.5  382. 
##  2       1       2  957. -80.0 -86.3 -0.763   0.5  283. 
##  3       1       3  698. -80.0 -12.8 -0.763  -0.5   30.4
##  4       1       4  464. -80.0 -13.9 -0.763   0.5 -282. 
##  5       1       5  497. -80.0  55.6 -0.763  -0.5 -239. 
##  6       1       6  787. -80.0 -45.9 -0.763   0.5   73.4
##  7       1       7  540. -80.0 -42.0 -0.763  -0.5  -98.4
##  8       1       8  483. -80.0 -87.6 -0.763   0.5 -189. 
##  9       1       9  173. -80.0 -97.4 -0.763  -0.5 -410. 
## 10       1      10  776. -80.0 -85.2 -0.763   0.5  102. 
## # ℹ 4,990 more rows
```
…
