1 前言 | 学习统计模型——通过R模拟
…
我们选择使用rnorm()来生成数据，这是一个从正态分布中生成随机数的函数，这反映了我们的假设——平均反应时在总体中呈正态分布。正态分布由两个参数定义，一个是均值(通常用希腊字母\(\mu\)表示，发音为”myoo”)，另一个是标准差(通常用希腊字母\(\sigma\)表示，发音为”sigma”)。由于我们自己生成了数据，所以\(\mu\)和\(\sigma\)都是已知的，在调用rnorm()时，我们将它们分别设置为480和40。

当然，为了验证我们的假设，我们需要一个对照组，所以我们定义了一个非父母的对照组。我们用相同的方式从这个对照组生成数据，但改变了平均值。

control <- rnorm(n = 50, mean = 500, sd = 40)

让我们将它们放入数据框(tibble)中，以便更容易绘制和分析数据。该数据框中的每一行表示来自特定被试的平均反应时。

dat <- tibble(group = rep(c("parent", "control"), each = 50),
              rt = c(parents, control))

dat

## # A tibble: 100 × 2
##    group     rt
##    <chr>  <dbl>
##  1 parent  475.
##  2 parent  502.
##  3 parent  494.
##  4 parent  494.
##  5 parent  516.
##  6 parent  403.
##  7 parent  490.
##  8 parent  517.
##  9 parent  481.
## 10 parent  549.
## # ℹ 90 more rows
…
