3 多元回归 | 学习统计模型——通过R模拟
…
让我们来看一些(虚构但基于现实的)数据，看看我们如何使用多元回归来回答各种研究问题。在这个假设的研究中，你有一个包含100名统计学学生的数据集，其中包括他们的最终课程成绩(grade)、每个学生参加讲座的次数(lecture，一个范围为0-10的整数)、每个学生点击下载在线资料的次数(nclicks)以及每个学生在修这门课程之前的平均绩点(GPA)，其范围从0(不及格)到4(最高可能成绩)。

3.1.1 数据导入和可视化

让我们加载数据grades.csv并看一看。

library("corrr") # 相关矩阵
library("tidyverse")

grades <- read_csv("data/grades.csv", col_types = "ddii")

grades

## # A tibble: 100 × 4
##    grade   GPA lecture nclicks
##    <dbl> <dbl>   <int>   <int>
##  1  2.40 1.13        6      88
##  2  3.67 0.971       6      96
##  3  2.85 3.34        6     123
##  4  1.36 2.76        9      99
##  5  2.31 1.02        4      66
##  6  2.58 0.841       8      99
##  7  2.69 4           5      86
##  8  3.05 2.29        7     118
##  9  3.21 3.39        9      98
## 10  2.24 3.27       10     115
## # ℹ 90 more rows
…
\[
z = \frac{X - \mu_x}{\sigma_x}
\]

\(z\)分数(\(z\)-score)表示\(X\)与样本均值(\(\mu_x\))之间的标准差单位距离(\(\sigma_x\))。因此，\(z\)分数为1意味着该值高于均值1个标准差；\(z\)分数为-2.5意味着低于均值2.5个标准差。\(Z\)分数通过将它们校准为标准正态分布(均值为0，标准差为1的分布)给了我们一种比较来自不同总体的事物的办法。

那么我们通过将预测变量转换为\(z\)分数来重新缩放它们。这是相当容易做到的。

grades2 <- grades %>%
  mutate(lecture_c = (lecture - mean(lecture)) / sd(lecture),
         nclicks_c = (nclicks - mean(nclicks)) / sd(nclicks))

grades2

## # A tibble: 100 × 6
##    grade   GPA lecture nclicks lecture_c nclicks_c
##    <dbl> <dbl>   <int>   <int>     <dbl>     <dbl>
##  1  2.40 1.13        6      88  -0.484     -0.666 
##  2  3.67 0.971       6      96  -0.484     -0.150 
##  3  2.85 3.34        6     123  -0.484      1.59  
##  4  1.36 2.76        9      99   0.982      0.0439
##  5  2.31 1.02        4      66  -1.46      -2.09  
##  6  2.58 0.841       8      99   0.493      0.0439
##  7  2.69 4           5      86  -0.972     -0.796 
##  8  3.05 2.29        7     118   0.00488    1.27  
##  9  3.21 3.39        9      98   0.982     -0.0207
## 10  2.24 3.27       10     115   1.47       1.08  
## # ℹ 90 more rows
…
